;This G-Code has been generated specifically for the LulzBot Sidekick with a Universal Tool Head
M400                                      ; wait for moves to finish
M140 S{material_part_removal_temperature} ; start bed cooling
M104 S0                                   ; disable hotend
M107                                      ; disable fans
G92 E5                                    ; set extruder to 5mm for retract on print end
M117 Cooling please wait                  ; progress indicator message on LCD
G1 Y-10 Z251.3 E0 F3000                ; move to cooling position
G1 E5                                     ; re-prime extruder
M190 R{material_part_removal_temperature} ; wait for bed to cool down to removal temp
G27                            ; present finished print
M140 S{material_keep_part_removal_temperature_t}; keep temperature or cool down
M77					                      ; End GLCD Print Timer
G90                                       ; absolute positioning
M18 X E				                  	  ; turn off x and e axis
M117 Print Complete.                      ; print complete message