{
    "id": "lulzbot_sidekick_289_sk285",
    "name": "TAZ SideKick 289 | SK285 | 0.50 mm",
    "inherits": "lulzbot_sidekick_289_base",
    "version": 2,
    "metadata":
    {
        "priority": "01",
        "machine_extruder_trains":
        {
            "0": "lulzbot_sidekick_289_extruder"
        },
        "type": "machine",
        "platform": "Sidekick_289_bed.stl",
        
        "preferred_material": "*PolyLite_PLA*",
        "preferred_quality": "*Standard*",
        "file_formats": "text/x-gcode",
        "visible": true,
        "printer_info_link": "https://www.lulzbot.com/store/printers/",
        "toolhead_info_link": "https://www.lulzbot.com/store/tool-heads/",
        "base_machine": "lulzbot_sidekick_289_base",
        "base_machine_name": "TAZ Sidekick 289",
        "user_toolhead_name": "SK285 | 0.50 mm | Brass"
    },
    "overrides":
    {
        
        "machine_name":
        {
            "default_value": "LulzBot TAZ SideKick 289"
        },
        "machine_heated_bed":
        {
            "default_value": true
        },
        "machine_center_is_zero":
        {
            "default_value": false
        },
        "machine_gcode_flavor":
        {
            "default_value": "RepRap (Marlin/Sprinter)"
        },
        "machine_start_gcode":
        {
            "default_value_from_file": "lulzbot_sidekick_start"
        },
        "machine_end_gcode":
        {
            "default_value_from_file": "lulzbot_sidekick_289_end"
        },
        "machine_level_x_axis_gcode":
        {
            "default_value_from_file": "lulzbot_sidekick_289_level_x_axis"
        },
        "machine_acceleration":
        {
            "default_value": 1000
        },
        "acceleration_print":
        {
            "default_value": 1000
        },
        "acceleration_infill":
        {
            "default_value": 1000
        },
        "acceleration_wall":
        {
            "default_value": 1000
        },
        "acceleration_wall_0":
        {
            "default_value": 1000
        },
        "acceleration_wall_x":
        {
            "default_value": 1000
        },
        "acceleration_topbottom":
        {
            "default_value": 1000
        },
        "acceleration_support":
        {
            "default_value": 1000
        },
        "acceleration_support_infill":
        {
            "default_value": 1000
        },
        "acceleration_support_interface":
        {
            "default_value": 1000
        },
        "acceleration_prime_tower":
        {
            "default_value": 1000
        },
        "acceleration_travel":
        {
            "default_value": 1000,
            "value": "acceleration_print if magic_spiralize else 2000"
        },
        "acceleration_layer_0":
        {
            "default_value": 1000
        },
        "acceleration_print_layer_0":
        {
            "default_value": 1000
        },
        "acceleration_travel_layer_0":
        {
            "default_value": 1000
        },
        "acceleration_skirt_brim":
        {
            "default_value": 1000
        },
        "jerk_print":
        {
            "default_value": 20
        },
        "jerk_infill":
        {
            "default_value": 20
        },
        "jerk_wall":
        {
            "default_value": 20
        },
        "jerk_wall_0":
        {
            "default_value": 20
        },
        "jerk_wall_x":
        {
            "default_value": 20
        },
        "jerk_topbottom":
        {
            "default_value": 20
        },
        "jerk_support":
        {
            "default_value": 20
        },
        "jerk_support_infill":
        {
            "default_value": 20
        },
        "jerk_support_interface":
        {
            "default_value": 20
        },
        "jerk_prime_tower":
        {
            "default_value": 20
        },
        "jerk_travel":
        {
            "default_value": 20,
            "value": "jerk_print if magic_spiralize else 20"
        },
        "jerk_layer_0":
        {
            "default_value": 20
        },
        "jerk_print_layer_0":
        {
            "default_value": 20
        },
        "jerk_travel_layer_0":
        {
            "default_value": 20
        },
        "jerk_skirt_brim":
        {
            "default_value": 20
        },
        "prime_tower_position_x":
        {
            "default_value": 20
        },
        "prime_tower_position_y":
        {
            "default_value": 20
        },
        "machine_baudrate":
        {
            "default_value": "250000"
        },
        "machine_max_feedrate_x":
        {
            "default_value": 800
        },
        "machine_max_feedrate_y":
        {
            "default_value": 800
        },
        "machine_max_feedrate_z":
        {
            "default_value": 8
        },
        "machine_max_feedrate_e":
        {
            "default_value": 40
        },
        "machine_max_acceleration_x":
        {
            "default_value": 9000
        },
        "machine_max_acceleration_y":
        {
            "default_value": 9000
        },
        "machine_max_acceleration_z":
        {
            "default_value": 100
        },
        "machine_max_acceleration_e":
        {
            "default_value": 10000
        }
    }
}
