{
    "id": "lulzbot_quiver_dingy_cutworm",
    "name": "TAZ Pro | HS+ | 1.20 mm",
    "inherits": "lulzbot_quiver_base",
    "version": 2,
    "metadata":
    {
        "type": "machine",
        "visible": true,
        "priority": "05",
        "machine_extruder_trains":
        {
            "0": "lulzbot_quiver_cecropia_extruder"
        },
        "platform": "quiver_bed.stl",
        "platform_offset":
        [
            0,
            -25,
            0
        ],
        "category": "LulzBot",
        "base_machine": "LulzBot TAZ Pro",
        "base_machine_name": "TAZ Pro",
        "preferred_material": "*PolyLite_PLA*",
        "user_toolhead_name": "HS+ | 1.20 mm | Hardened SST",
        "toolhead_info_link": "https://www.lulzbot.com/store/tool-heads/lulzbot-hs-plus-tool-head-hardened-steel-1_2-mm?pk_campaign=software-cura",
        "default_category": "All"
    },
    "overrides":
    {
        "machine_name":
        {
            "default_value": "LulzBot Pro | HS+ | 1.2mm"
        },
        "machine_start_gcode":
        {
            "default_value_from_file": "lulzbot_quiver_dingy_cutworm_start"
        },
        "machine_end_gcode":
        {
            "default_value_from_file": "lulzbot_quiver_cecropia_end"
        },
        "machine_level_x_axis_gcode":
        {
            "default_value_from_file": "lulzbot_quiver_level_x_axis"
        },
        "machine_extruder_count": {
            "default_value": 1
        },
        "machine_width":
        {
            "default_value": 282
        },
        "machine_depth":
        {
            "default_value": 282
        },
        "machine_height":
        {
            "default_value": 287
        },
        "machine_wipe_gcode":
        {
            "default_value_from_file": "lulzbot_quiver_dingy_cutworm_wipe"
        },
        "layer_start_x": { "value": "100" },
        "layer_start_y": { "value": "100" }
    }
}
