{
    "id": "lulzbot_sidekick_289_cecropia",
    "name": "TAZ SideKick 289 | SE | 0.50 mm",
    "inherits": "lulzbot_sidekick_289_base",
    "version": 2,
    "metadata":
    {
        "priority": "02",
        "machine_extruder_trains":
        {
            "0": "lulzbot_sidekick_289_cecropia_extruder"
        },
        "type": "machine",
        "platform": "Sidekick_289_bed.stl",
        
        "preferred_material": "*PolyLite_PLA*",
        "preferred_quality": "*Standard*",
        "file_formats": "text/x-gcode",
        "visible": true,
        "printer_info_link": "https://www.lulzbot.com/store/printers/",
        "toolhead_info_link": "https://www.lulzbot.com/store/tool-heads/",
        "base_machine": "lulzbot_sidekick_289_base",
        "base_machine_name": "TAZ Sidekick 289",
        "user_toolhead_name": "SE | 0.50 mm | Nickel Plated Copper",
        "default_extrusion_rate": 60
    },
    "overrides":
    {
        "machine_start_gcode":
        {
            "default_value_from_file": "lulzbot_sidekick_start"
        },
        "machine_end_gcode":
        {
            "default_value_from_file": "lulzbot_sidekick_289_end"
        },
        "machine_level_x_axis_gcode":
        {
            "default_value_from_file": "lulzbot_sidekick_289_level_x_axis"
        }
    }
}
