{
    "id": "lulzbot_redgum_cecropia",
    "name": "TAZ Workhorse | SE | 0.50 mm",
    "inherits": "lulzbot_redgum_base",
    "version": 2,
    "metadata":
    {
        "type": "machine",
        "visible": true,
        "priority": "00",
        "machine_extruder_trains":
        {
            "0": "lulzbot_redgum_cecropia_extruder"
        },
        "supported_actions": ["MachineSettingsAction"],
        "base_machine": "LulzBot TAZ Workhorse",
        "base_machine_name": "TAZ Workhorse",
        "preferred_material": "*PolyLite_PLA*",
        "user_toolhead_name": "SE | 0.50 mm | Nickel Plated Copper",
        "toolhead_info_link": "https://www.lulzbot.com/store/tool-heads?pk_campaign=software-cura",
        "default_category": "All"
    },
    "overrides":
    {
        "machine_name":
        {
            "default_value": "LulzBot Workhorse Cecropia"
        },
        "machine_start_gcode":
        {
            "default_value_from_file": "lulzbot_redgum_cecropia_start"
        },
        "machine_end_gcode":
        {
            "default_value_from_file": "lulzbot_redgum_goldenrod_end"
        },
        "machine_level_x_axis_gcode":
        {
            "default_value_from_file": "lulzbot_quiver_level_x_axis"
        },
        "machine_extruder_count": {
            "default_value": 1
        },
        "machine_width":
        {
            "default_value": 282
        },
        "machine_depth":
        {
            "default_value": 282
        },
        "machine_height":
        {
            "default_value": 286
        },
        "layer_start_x": { "value": "100" },
        "layer_start_y": { "value": "100" }
    }
}
