{
    "id": "lulzbot_taz6_cecropia",
    "name": "TAZ 6 | SE | 0.5 mm",
    "inherits": "lulzbot_taz6",
    "version": 2,
    "metadata":
    {
        "priority": "02",
        "machine_extruder_trains":
        {
            "0": "lulzbot_taz6_cecropia_extruder"
        },
        "type": "machine",
        "visible": true,
        "user_toolhead_name": "SE | 0.50 mm | Nickel Plated Copper",
        "toolhead_info_link": "https://www.lulzbot.com/store/tool-heads/se-tool-head-single-extruder-05-mm?pk_campaign=software-cura"
    },
    "overrides":
    {
        "machine_name":
        {
            "default_value": "LulzBot TAZ 6"
        },
        "machine_start_gcode":
        {
            "default_value_from_file": "lulzbot_taz6_cecropia_start"
        },
        "machine_end_gcode":
        {
            "default_value_from_file": "lulzbot_taz6_end"
        }
    }
}
